{
  "file_generated_by": "FlutterFire CLI",
  "purpose": "FirebaseAppID & ProjectID for this Firebase app in this directory",
  "GOOGLE_APP_ID": "1:449017363063:ios:d53f55b9f8b42a1c182472",
  "FIREBASE_PROJECT_ID": "smart-timetable-f92ff",
  "GCM_SENDER_ID": "449017363063"
}