{
  "project_info": {
    "project_number": "449017363063",
    "firebase_url": "https://smart-timetable-f92ff-default-rtdb.europe-west1.firebasedatabase.app",
    "project_id": "smart-timetable-f92ff",
    "storage_bucket": "smart-timetable-f92ff.appspot.com"
  },
  "client": [
    {
      "client_info": {
        "mobilesdk_app_id": "1:449017363063:android:4de2c8de35ec75c5182472",
        "android_client_info": {
          "package_name": "com.example.npp"
        }
      },
      "oauth_client": [],
      "api_key": [
        {
          "current_key": "AIzaSyBGQJ6NQqArTOJ18mfMBieCOTWnU67ohNY"
        }
      ],
      "services": {
        "appinvite_service": {
          "other_platform_oauth_client": []
        }
      }
    }
  ],
  "configuration_version": "1"
}